…
```r
#number of simulations per year-month
input %>% 
  group_by(year(date), month(date)) %>% 
  summarise(n_sim = n(), 
            n_flares = sum(n))
```

```
## `summarise()` has grouped output by 'year(date)'. You can override using the `.groups` argument.
```

```
## # A tibble: 66 × 4
## # Groups:   year(date) [6]
##    `year(date)` `month(date)` n_sim n_flares
##           <dbl>         <dbl> <int>    <int>
##  1         2015             7  1647     1804
##  2         2015             8  1736     1890
##  3         2015             9  1844     2020
##  4         2015            10  1424     1533
##  5         2015            11  1364     1554
##  6         2015            12  1667     2289
##  7         2016             1  1611     2304
##  8         2016             2  1680     2342
##  9         2016             3  1409     1818
## 10         2016             4  1171     1557
## # … with 56 more rows
```
