5 link checkpoint | Flares Texas
…
5.1 check 1

check disperser was able to link all emissions (compare with ls | wc where hyspdisp files are located)

#### number of files disperser will create for each year month
disperser_input %>% 
  distinct(year, month, ID) %>% 
  group_by(year, month) %>% 
  summarise(n = n())

## `summarise()` has grouped output by 'year'. You can override using the
## `.groups` argument.

## # A tibble: 66 × 3
## # Groups:   year [6]
##     year month     n
##    <dbl> <dbl> <int>
##  1  2015     7    44
##  2  2015     8    44
##  3  2015     9    48
##  4  2015    10    44
##  5  2015    11    45
##  6  2015    12    47
##  7  2016     1    43
##  8  2016     2    42
##  9  2016     3    45
## 10  2016     4    38
## # … with 56 more rows
…
